%YAML 1.1
%TAG !u! tag:unity3d.com,2011:
--- !u!1 &3369606758200590812
GameObject:
  m_ObjectHideFlags: 0
  m_CorrespondingSourceObject: {fileID: 0}
  m_PrefabInstance: {fileID: 0}
  m_PrefabAsset: {fileID: 0}
  serializedVersion: 6
  m_Component:
  - component: {fileID: 3369606758200590815}
  m_Layer: 0
  m_Name: ---SILLAS---
  m_TagString: Untagged
  m_Icon: {fileID: 0}
  m_NavMeshLayer: 0
  m_StaticEditorFlags: 0
  m_IsActive: 1
--- !u!4 &3369606758200590815
Transform:
  m_ObjectHideFlags: 0
  m_CorrespondingSourceObject: {fileID: 0}
  m_PrefabInstance: {fileID: 0}
  m_PrefabAsset: {fileID: 0}
  m_GameObject: {fileID: 3369606758200590812}
  m_LocalRotation: {x: 0, y: 0, z: 0, w: 1}
  m_LocalPosition: {x: -63.380585, y: 2.2760963, z: 157.29315}
  m_LocalScale: {x: 1, y: 1, z: 1}
  m_ConstrainProportionsScale: 0
  m_Children:
  - {fileID: 2975056377943730525}
  - {fileID: 2975056376995161938}
  - {fileID: 2975056377694842322}
  m_Father: {fileID: 0}
  m_RootOrder: 0
  m_LocalEulerAnglesHint: {x: 0, y: 0, z: 0}
--- !u!1001 &3369606757082320566
PrefabInstance:
  m_ObjectHideFlags: 0
  serializedVersion: 2
  m_Modification:
    m_TransformParent: {fileID: 3369606758200590815}
    m_Modifications:
    - target: {fileID: -8679921383154817045, guid: 78ade105789c1114f91e52abcdd9f12b,
        type: 3}
      propertyPath: m_RootOrder
      value: 0
      objectReference: {fileID: 0}
    - target: {fileID: -8679921383154817045, guid: 78ade105789c1114f91e52abcdd9f12b,
        type: 3}
      propertyPath: m_LocalScale.x
      value: 1.7013263
      objectReference: {fileID: 0}
    - target: {fileID: -8679921383154817045, guid: 78ade105789c1114f91e52abcdd9f12b,
        type: 3}
      propertyPath: m_LocalScale.y
      value: 1.7013263
      objectReference: {fileID: 0}
    - target: {fileID: -8679921383154817045, guid: 78ade105789c1114f91e52abcdd9f12b,
        type: 3}
      propertyPath: m_LocalScale.z
      value: 1.7013263
      objectReference: {fileID: 0}
    - target: {fileID: -8679921383154817045, guid: 78ade105789c1114f91e52abcdd9f12b,
        type: 3}
      propertyPath: m_LocalPosition.x
      value: -1.62
      objectReference: {fileID: 0}
    - target: {fileID: -8679921383154817045, guid: 78ade105789c1114f91e52abcdd9f12b,
        type: 3}
      propertyPath: m_LocalPosition.y
      value: -0.90409636
      objectReference: {fileID: 0}
    - target: {fileID: -8679921383154817045, guid: 78ade105789c1114f91e52abcdd9f12b,
        type: 3}
      propertyPath: m_LocalPosition.z
      value: -1.18
      objectReference: {fileID: 0}
    - target: {fileID: -8679921383154817045, guid: 78ade105789c1114f91e52abcdd9f12b,
        type: 3}
      propertyPath: m_LocalRotation.w
      value: 0.3505419
      objectReference: {fileID: 0}
    - target: {fileID: -8679921383154817045, guid: 78ade105789c1114f91e52abcdd9f12b,
        type: 3}
      propertyPath: m_LocalRotation.x
      value: -0
      objectReference: {fileID: 0}
    - target: {fileID: -8679921383154817045, guid: 78ade105789c1114f91e52abcdd9f12b,
        type: 3}
      propertyPath: m_LocalRotation.y
      value: 0.93654704
      objectReference: {fileID: 0}
    - target: {fileID: -8679921383154817045, guid: 78ade105789c1114f91e52abcdd9f12b,
        type: 3}
      propertyPath: m_LocalRotation.z
      value: -0
      objectReference: {fileID: 0}
    - target: {fileID: -8679921383154817045, guid: 78ade105789c1114f91e52abcdd9f12b,
        type: 3}
      propertyPath: m_LocalEulerAnglesHint.x
      value: 0
      objectReference: {fileID: 0}
    - target: {fileID: -8679921383154817045, guid: 78ade105789c1114f91e52abcdd9f12b,
        type: 3}
      propertyPath: m_LocalEulerAnglesHint.y
      value: 138.959
      objectReference: {fileID: 0}
    - target: {fileID: -8679921383154817045, guid: 78ade105789c1114f91e52abcdd9f12b,
        type: 3}
      propertyPath: m_LocalEulerAnglesHint.z
      value: 0
      objectReference: {fileID: 0}
    - target: {fileID: 919132149155446097, guid: 78ade105789c1114f91e52abcdd9f12b,
        type: 3}
      propertyPath: m_Name
      value: Thin Chair (1)
      objectReference: {fileID: 0}
    - target: {fileID: 919132149155446097, guid: 78ade105789c1114f91e52abcdd9f12b,
        type: 3}
      propertyPath: m_TagString
      value: silla
      objectReference: {fileID: 0}
    m_RemovedComponents: []
  m_SourcePrefab: {fileID: 100100000, guid: 78ade105789c1114f91e52abcdd9f12b, type: 3}
--- !u!1 &2450616461034058727 stripped
GameObject:
  m_CorrespondingSourceObject: {fileID: 919132149155446097, guid: 78ade105789c1114f91e52abcdd9f12b,
    type: 3}
  m_PrefabInstance: {fileID: 3369606757082320566}
  m_PrefabAsset: {fileID: 0}
--- !u!54 &3369606756614682635
Rigidbody:
  m_ObjectHideFlags: 0
  m_CorrespondingSourceObject: {fileID: 0}
  m_PrefabInstance: {fileID: 0}
  m_PrefabAsset: {fileID: 0}
  m_GameObject: {fileID: 2450616461034058727}
  serializedVersion: 2
  m_Mass: 1
  m_Drag: 0
  m_AngularDrag: 0.05
  m_UseGravity: 1
  m_IsKinematic: 1
  m_Interpolate: 0
  m_Constraints: 0
  m_CollisionDetection: 0
--- !u!65 &3369606756614682634
BoxCollider:
  m_ObjectHideFlags: 0
  m_CorrespondingSourceObject: {fileID: 0}
  m_PrefabInstance: {fileID: 0}
  m_PrefabAsset: {fileID: 0}
  m_GameObject: {fileID: 2450616461034058727}
  m_Material: {fileID: 0}
  m_IsTrigger: 0
  m_Enabled: 1
  serializedVersion: 2
  m_Size: {x: 1.2490422, y: 1.2142279, z: 2.2522786}
  m_Center: {x: 0.006588147, y: 0, z: 0.84014314}
--- !u!4 &2975056377943730525 stripped
Transform:
  m_CorrespondingSourceObject: {fileID: -8679921383154817045, guid: 78ade105789c1114f91e52abcdd9f12b,
    type: 3}
  m_PrefabInstance: {fileID: 3369606757082320566}
  m_PrefabAsset: {fileID: 0}
--- !u!1001 &3369606757373413945
PrefabInstance:
  m_ObjectHideFlags: 0
  serializedVersion: 2
  m_Modification:
    m_TransformParent: {fileID: 3369606758200590815}
    m_Modifications:
    - target: {fileID: -8679921383154817045, guid: 78ade105789c1114f91e52abcdd9f12b,
        type: 3}
      propertyPath: m_RootOrder
      value: 2
      objectReference: {fileID: 0}
    - target: {fileID: -8679921383154817045, guid: 78ade105789c1114f91e52abcdd9f12b,
        type: 3}
      propertyPath: m_LocalScale.x
      value: 1.7066411
      objectReference: {fileID: 0}
    - target: {fileID: -8679921383154817045, guid: 78ade105789c1114f91e52abcdd9f12b,
        type: 3}
      propertyPath: m_LocalScale.y
      value: 1.7066411
      objectReference: {fileID: 0}
    - target: {fileID: -8679921383154817045, guid: 78ade105789c1114f91e52abcdd9f12b,
        type: 3}
      propertyPath: m_LocalScale.z
      value: 1.7066411
      objectReference: {fileID: 0}
    - target: {fileID: -8679921383154817045, guid: 78ade105789c1114f91e52abcdd9f12b,
        type: 3}
      propertyPath: m_LocalPosition.x
      value: -4.55
      objectReference: {fileID: 0}
    - target: {fileID: -8679921383154817045, guid: 78ade105789c1114f91e52abcdd9f12b,
        type: 3}
      propertyPath: m_LocalPosition.y
      value: -0.90409636
      objectReference: {fileID: 0}
    - target: {fileID: -8679921383154817045, guid: 78ade105789c1114f91e52abcdd9f12b,
        type: 3}
      propertyPath: m_LocalPosition.z
      value: -1.07
      objectReference: {fileID: 0}
    - target: {fileID: -8679921383154817045, guid: 78ade105789c1114f91e52abcdd9f12b,
        type: 3}
      propertyPath: m_LocalRotation.w
      value: 0.5299557
      objectReference: {fileID: 0}
    - target: {fileID: -8679921383154817045, guid: 78ade105789c1114f91e52abcdd9f12b,
        type: 3}
      propertyPath: m_LocalRotation.x
      value: -0
      objectReference: {fileID: 0}
    - target: {fileID: -8679921383154817045, guid: 78ade105789c1114f91e52abcdd9f12b,
        type: 3}
      propertyPath: m_LocalRotation.y
      value: -0.8480254
      objectReference: {fileID: 0}
    - target: {fileID: -8679921383154817045, guid: 78ade105789c1114f91e52abcdd9f12b,
        type: 3}
      propertyPath: m_LocalRotation.z
      value: -0
      objectReference: {fileID: 0}
    - target: {fileID: -8679921383154817045, guid: 78ade105789c1114f91e52abcdd9f12b,
        type: 3}
      propertyPath: m_LocalEulerAnglesHint.x
      value: 0
      objectReference: {fileID: 0}
    - target: {fileID: -8679921383154817045, guid: 78ade105789c1114f91e52abcdd9f12b,
        type: 3}
      propertyPath: m_LocalEulerAnglesHint.y
      value: -115.995
      objectReference: {fileID: 0}
    - target: {fileID: -8679921383154817045, guid: 78ade105789c1114f91e52abcdd9f12b,
        type: 3}
      propertyPath: m_LocalEulerAnglesHint.z
      value: 0
      objectReference: {fileID: 0}
    - target: {fileID: 919132149155446097, guid: 78ade105789c1114f91e52abcdd9f12b,
        type: 3}
      propertyPath: m_Name
      value: Thin Chair (2)
      objectReference: {fileID: 0}
    - target: {fileID: 919132149155446097, guid: 78ade105789c1114f91e52abcdd9f12b,
        type: 3}
      propertyPath: m_TagString
      value: silla
      objectReference: {fileID: 0}
    m_RemovedComponents: []
  m_SourcePrefab: {fileID: 100100000, guid: 78ade105789c1114f91e52abcdd9f12b, type: 3}
--- !u!1 &2450616460250363752 stripped
GameObject:
  m_CorrespondingSourceObject: {fileID: 919132149155446097, guid: 78ade105789c1114f91e52abcdd9f12b,
    type: 3}
  m_PrefabInstance: {fileID: 3369606757373413945}
  m_PrefabAsset: {fileID: 0}
--- !u!54 &3369606756986702130
Rigidbody:
  m_ObjectHideFlags: 0
  m_CorrespondingSourceObject: {fileID: 0}
  m_PrefabInstance: {fileID: 0}
  m_PrefabAsset: {fileID: 0}
  m_GameObject: {fileID: 2450616460250363752}
  serializedVersion: 2
  m_Mass: 1
  m_Drag: 0
  m_AngularDrag: 0.05
  m_UseGravity: 1
  m_IsKinematic: 1
  m_Interpolate: 0
  m_Constraints: 0
  m_CollisionDetection: 0
--- !u!65 &3369606756986702141
BoxCollider:
  m_ObjectHideFlags: 0
  m_CorrespondingSourceObject: {fileID: 0}
  m_PrefabInstance: {fileID: 0}
  m_PrefabAsset: {fileID: 0}
  m_GameObject: {fileID: 2450616460250363752}
  m_Material: {fileID: 0}
  m_IsTrigger: 0
  m_Enabled: 1
  serializedVersion: 2
  m_Size: {x: 1.2490422, y: 1.2142279, z: 2.2522786}
  m_Center: {x: 0.006588147, y: 0, z: 0.84014314}
--- !u!4 &2975056377694842322 stripped
Transform:
  m_CorrespondingSourceObject: {fileID: -8679921383154817045, guid: 78ade105789c1114f91e52abcdd9f12b,
    type: 3}
  m_PrefabInstance: {fileID: 3369606757373413945}
  m_PrefabAsset: {fileID: 0}
--- !u!1001 &3369606758064701625
PrefabInstance:
  m_ObjectHideFlags: 0
  serializedVersion: 2
  m_Modification:
    m_TransformParent: {fileID: 3369606758200590815}
    m_Modifications:
    - target: {fileID: -8679921383154817045, guid: 78ade105789c1114f91e52abcdd9f12b,
        type: 3}
      propertyPath: m_RootOrder
      value: 1
      objectReference: {fileID: 0}
    - target: {fileID: -8679921383154817045, guid: 78ade105789c1114f91e52abcdd9f12b,
        type: 3}
      propertyPath: m_LocalScale.x
      value: 1.7962891
      objectReference: {fileID: 0}
    - target: {fileID: -8679921383154817045, guid: 78ade105789c1114f91e52abcdd9f12b,
        type: 3}
      propertyPath: m_LocalScale.y
      value: 1.7962891
      objectReference: {fileID: 0}
    - target: {fileID: -8679921383154817045, guid: 78ade105789c1114f91e52abcdd9f12b,
        type: 3}
      propertyPath: m_LocalScale.z
      value: 1.7962891
      objectReference: {fileID: 0}
    - target: {fileID: -8679921383154817045, guid: 78ade105789c1114f91e52abcdd9f12b,
        type: 3}
      propertyPath: m_LocalPosition.x
      value: -2.93
      objectReference: {fileID: 0}
    - target: {fileID: -8679921383154817045, guid: 78ade105789c1114f91e52abcdd9f12b,
        type: 3}
      propertyPath: m_LocalPosition.y
      value: -0.90409636
      objectReference: {fileID: 0}
    - target: {fileID: -8679921383154817045, guid: 78ade105789c1114f91e52abcdd9f12b,
        type: 3}
      propertyPath: m_LocalPosition.z
      value: 1.41
      objectReference: {fileID: 0}
    - target: {fileID: -8679921383154817045, guid: 78ade105789c1114f91e52abcdd9f12b,
        type: 3}
      propertyPath: m_LocalRotation.w
      value: 1
      objectReference: {fileID: 0}
    - target: {fileID: -8679921383154817045, guid: 78ade105789c1114f91e52abcdd9f12b,
        type: 3}
      propertyPath: m_LocalRotation.x
      value: -0
      objectReference: {fileID: 0}
    - target: {fileID: -8679921383154817045, guid: 78ade105789c1114f91e52abcdd9f12b,
        type: 3}
      propertyPath: m_LocalRotation.y
      value: -0
      objectReference: {fileID: 0}
    - target: {fileID: -8679921383154817045, guid: 78ade105789c1114f91e52abcdd9f12b,
        type: 3}
      propertyPath: m_LocalRotation.z
      value: -0
      objectReference: {fileID: 0}
    - target: {fileID: -8679921383154817045, guid: 78ade105789c1114f91e52abcdd9f12b,
        type: 3}
      propertyPath: m_LocalEulerAnglesHint.x
      value: 0
      objectReference: {fileID: 0}
    - target: {fileID: -8679921383154817045, guid: 78ade105789c1114f91e52abcdd9f12b,
        type: 3}
      propertyPath: m_LocalEulerAnglesHint.y
      value: 0
      objectReference: {fileID: 0}
    - target: {fileID: -8679921383154817045, guid: 78ade105789c1114f91e52abcdd9f12b,
        type: 3}
      propertyPath: m_LocalEulerAnglesHint.z
      value: 0
      objectReference: {fileID: 0}
    - target: {fileID: 919132149155446097, guid: 78ade105789c1114f91e52abcdd9f12b,
        type: 3}
      propertyPath: m_Name
      value: Thin Chair
      objectReference: {fileID: 0}
    - target: {fileID: 919132149155446097, guid: 78ade105789c1114f91e52abcdd9f12b,
        type: 3}
      propertyPath: m_TagString
      value: silla
      objectReference: {fileID: 0}
    m_RemovedComponents: []
  m_SourcePrefab: {fileID: 100100000, guid: 78ade105789c1114f91e52abcdd9f12b, type: 3}
--- !u!1 &2450616459869486568 stripped
GameObject:
  m_CorrespondingSourceObject: {fileID: 919132149155446097, guid: 78ade105789c1114f91e52abcdd9f12b,
    type: 3}
  m_PrefabInstance: {fileID: 3369606758064701625}
  m_PrefabAsset: {fileID: 0}
--- !u!54 &3369606758580328775
Rigidbody:
  m_ObjectHideFlags: 0
  m_CorrespondingSourceObject: {fileID: 0}
  m_PrefabInstance: {fileID: 0}
  m_PrefabAsset: {fileID: 0}
  m_GameObject: {fileID: 2450616459869486568}
  serializedVersion: 2
  m_Mass: 1
  m_Drag: 0
  m_AngularDrag: 0.05
  m_UseGravity: 1
  m_IsKinematic: 1
  m_Interpolate: 0
  m_Constraints: 0
  m_CollisionDetection: 0
--- !u!65 &3369606758580328774
BoxCollider:
  m_ObjectHideFlags: 0
  m_CorrespondingSourceObject: {fileID: 0}
  m_PrefabInstance: {fileID: 0}
  m_PrefabAsset: {fileID: 0}
  m_GameObject: {fileID: 2450616459869486568}
  m_Material: {fileID: 0}
  m_IsTrigger: 0
  m_Enabled: 1
  serializedVersion: 2
  m_Size: {x: 1.2490422, y: 1.2142279, z: 2.2522786}
  m_Center: {x: 0.006588147, y: 0, z: 0.84014314}
--- !u!4 &2975056376995161938 stripped
Transform:
  m_CorrespondingSourceObject: {fileID: -8679921383154817045, guid: 78ade105789c1114f91e52abcdd9f12b,
    type: 3}
  m_PrefabInstance: {fileID: 3369606758064701625}
  m_PrefabAsset: {fileID: 0}
