%YAML 1.1
%TAG !u! tag:unity3d.com,2011:
--- !u!114 &11400000
MonoBehaviour:
  m_ObjectHideFlags: 0
  m_CorrespondingSourceObject: {fileID: 0}
  m_PrefabInstance: {fileID: 0}
  m_PrefabAsset: {fileID: 0}
  m_GameObject: {fileID: 0}
  m_Enabled: 1
  m_EditorHideFlags: 0
  m_Script: {fileID: 11500000, guid: dc38003c0e0db6641a4762d4f392de52, type: 3}
  m_Name: PrefabPalette-Default
  m_EditorClassIdentifier: 
  prefabs:
  - gameObject: {fileID: 7306804305539907048, guid: 0c7636e4bd0423e4494674cb7340634a,
      type: 3}
    settings:
      m_Strength: 54.159664
      m_RotationRangeMin: {x: 0, y: 0, z: 0}
      m_RotationRangeMax: {x: 0, y: 0, z: 0}
      m_ScaleRangeMin: {x: 1, y: 1, z: 1}
      m_ScaleRangeMax: {x: 1, y: 1, z: 1}
      m_UniformScale: {x: 1, y: 1}
      m_UniformBool: 0
      m_XRotationBool: 0
      m_YRotationBool: 0
      m_ZRotationBool: 0
      m_XScaleBool: 0
      m_YScaleBool: 0
      m_ZScaleBool: 0
    name: berry bush 1 Variant
  - gameObject: {fileID: 903250444307398597, guid: 015c985cc0be598468b6748615f70e7c,
      type: 3}
    settings:
      m_Strength: 50
      m_RotationRangeMin: {x: 0, y: 0, z: 0}
      m_RotationRangeMax: {x: 0, y: 0, z: 0}
      m_ScaleRangeMin: {x: 1, y: 1, z: 1}
      m_ScaleRangeMax: {x: 1, y: 1, z: 1}
      m_UniformScale: {x: 1, y: 1}
      m_UniformBool: 0
      m_XRotationBool: 0
      m_YRotationBool: 0
      m_ZRotationBool: 0
      m_XScaleBool: 0
      m_YScaleBool: 0
      m_ZScaleBool: 0
    name: pine tree 1 (4) Variant
  - gameObject: {fileID: 7027679719061506438, guid: daad19c035ee9754595afeba9c5be924,
      type: 3}
    settings:
      m_Strength: 50
      m_RotationRangeMin: {x: 0, y: 0, z: 0}
      m_RotationRangeMax: {x: 0, y: 0, z: 0}
      m_ScaleRangeMin: {x: 1, y: 1, z: 1}
      m_ScaleRangeMax: {x: 1, y: 1, z: 1}
      m_UniformScale: {x: 1, y: 1}
      m_UniformBool: 0
      m_XRotationBool: 0
      m_YRotationBool: 0
      m_ZRotationBool: 0
      m_XScaleBool: 0
      m_YScaleBool: 0
      m_ZScaleBool: 0
    name: pine tree 2 (3) Variant
  - gameObject: {fileID: 278359078194417465, guid: 936c2e8dd12f4a143adcd006ce4d407e,
      type: 3}
    settings:
      m_Strength: 50
      m_RotationRangeMin: {x: 0, y: 0, z: 0}
      m_RotationRangeMax: {x: 0, y: 0, z: 0}
      m_ScaleRangeMin: {x: 1, y: 1, z: 1}
      m_ScaleRangeMax: {x: 1, y: 1, z: 1}
      m_UniformScale: {x: 1, y: 1}
      m_UniformBool: 0
      m_XRotationBool: 0
      m_YRotationBool: 0
      m_ZRotationBool: 0
      m_XScaleBool: 0
      m_YScaleBool: 0
      m_ZScaleBool: 0
    name: tree 1 (1) Variant
  - gameObject: {fileID: 4056769742542603145, guid: 36e09194655340348943d1fde2473fad,
      type: 3}
    settings:
      m_Strength: 50
      m_RotationRangeMin: {x: 0, y: 0, z: 0}
      m_RotationRangeMax: {x: 0, y: 0, z: 0}
      m_ScaleRangeMin: {x: 1, y: 1, z: 1}
      m_ScaleRangeMax: {x: 1, y: 1, z: 1}
      m_UniformScale: {x: 1, y: 1}
      m_UniformBool: 0
      m_XRotationBool: 0
      m_YRotationBool: 0
      m_ZRotationBool: 0
      m_XScaleBool: 0
      m_YScaleBool: 0
      m_ZScaleBool: 0
    name: tree 2 (1) Variant
  - gameObject: {fileID: 4527877718576049235, guid: c6be72dc23d6afc4384ef34294c1b83c,
      type: 3}
    settings:
      m_Strength: 50
      m_RotationRangeMin: {x: 0, y: 0, z: 0}
      m_RotationRangeMax: {x: 0, y: 0, z: 0}
      m_ScaleRangeMin: {x: 1, y: 1, z: 1}
      m_ScaleRangeMax: {x: 1, y: 1, z: 1}
      m_UniformScale: {x: 1, y: 1}
      m_UniformBool: 0
      m_XRotationBool: 0
      m_YRotationBool: 0
      m_ZRotationBool: 0
      m_XScaleBool: 0
      m_YScaleBool: 0
      m_ZScaleBool: 0
    name: tree 3 (2) Variant
  - gameObject: {fileID: 8215274948395330078, guid: 3b3e6f430e8e18c439a982487072d7b0,
      type: 3}
    settings:
      m_Strength: 50
      m_RotationRangeMin: {x: 0, y: 0, z: 0}
      m_RotationRangeMax: {x: 0, y: 0, z: 0}
      m_ScaleRangeMin: {x: 1, y: 1, z: 1}
      m_ScaleRangeMax: {x: 1, y: 1, z: 1}
      m_UniformScale: {x: 1, y: 1}
      m_UniformBool: 0
      m_XRotationBool: 0
      m_YRotationBool: 0
      m_ZRotationBool: 0
      m_XScaleBool: 0
      m_YScaleBool: 0
      m_ZScaleBool: 0
    name: grass 1 (2) Variant
  - gameObject: {fileID: 5441067592440467459, guid: 205ea881240798e41bb2b41e5fdf1bde,
      type: 3}
    settings:
      m_Strength: 50
      m_RotationRangeMin: {x: 0, y: 0, z: 0}
      m_RotationRangeMax: {x: 0, y: 0, z: 0}
      m_ScaleRangeMin: {x: 1, y: 1, z: 1}
      m_ScaleRangeMax: {x: 1, y: 1, z: 1}
      m_UniformScale: {x: 1, y: 1}
      m_UniformBool: 0
      m_XRotationBool: 0
      m_YRotationBool: 0
      m_ZRotationBool: 0
      m_XScaleBool: 0
      m_YScaleBool: 0
      m_ZScaleBool: 0
    name: grass 2 (2) Variant
  - gameObject: {fileID: 6920841521714932417, guid: 0b25658c1119e7a4988c21fa3e3bb409,
      type: 3}
    settings:
      m_Strength: 50
      m_RotationRangeMin: {x: 0, y: 0, z: 0}
      m_RotationRangeMax: {x: 0, y: 0, z: 0}
      m_ScaleRangeMin: {x: 1, y: 1, z: 1}
      m_ScaleRangeMax: {x: 1, y: 1, z: 1}
      m_UniformScale: {x: 1, y: 1}
      m_UniformBool: 0
      m_XRotationBool: 0
      m_YRotationBool: 0
      m_ZRotationBool: 0
      m_XScaleBool: 0
      m_YScaleBool: 0
      m_ZScaleBool: 0
    name: grass 3 (5) Variant
  - gameObject: {fileID: 6433104166861650357, guid: 972fcb596569cd1428566b880f303c95,
      type: 3}
    settings:
      m_Strength: 50
      m_RotationRangeMin: {x: 0, y: 0, z: 0}
      m_RotationRangeMax: {x: 0, y: 0, z: 0}
      m_ScaleRangeMin: {x: 1, y: 1, z: 1}
      m_ScaleRangeMax: {x: 1, y: 1, z: 1}
      m_UniformScale: {x: 1, y: 1}
      m_UniformBool: 0
      m_XRotationBool: 0
      m_YRotationBool: 0
      m_ZRotationBool: 0
      m_XScaleBool: 0
      m_YScaleBool: 0
      m_ZScaleBool: 0
    name: mushroom 1 (2) Variant
  - gameObject: {fileID: 4383006884404972941, guid: 467d47d319917614c8a34ff27a5454fe,
      type: 3}
    settings:
      m_Strength: 54.65967
      m_RotationRangeMin: {x: 0, y: 0, z: 0}
      m_RotationRangeMax: {x: 0, y: 0, z: 0}
      m_ScaleRangeMin: {x: 1, y: 1, z: 1}
      m_ScaleRangeMax: {x: 1, y: 1, z: 1}
      m_UniformScale: {x: 1, y: 1}
      m_UniformBool: 0
      m_XRotationBool: 0
      m_YRotationBool: 0
      m_ZRotationBool: 0
      m_XScaleBool: 0
      m_YScaleBool: 0
      m_ZScaleBool: 0
    name: mushroom 2 (2) Variant
  - gameObject: {fileID: 7814589762563716982, guid: 5e45e7a38f1ab014aa16b6156a83dc84,
      type: 3}
    settings:
      m_Strength: 50
      m_RotationRangeMin: {x: 0, y: 0, z: 0}
      m_RotationRangeMax: {x: 0, y: 0, z: 0}
      m_ScaleRangeMin: {x: 1, y: 1, z: 1}
      m_ScaleRangeMax: {x: 1, y: 1, z: 1}
      m_UniformScale: {x: 1, y: 1}
      m_UniformBool: 0
      m_XRotationBool: 0
      m_YRotationBool: 0
      m_ZRotationBool: 0
      m_XScaleBool: 0
      m_YScaleBool: 0
      m_ZScaleBool: 0
    name: rock 1 Variant
  - gameObject: {fileID: 1045121659664087827, guid: 8fb2b70cb23c0a44786f26c2fc7af61a,
      type: 3}
    settings:
      m_Strength: 50
      m_RotationRangeMin: {x: 0, y: 0, z: 0}
      m_RotationRangeMax: {x: 0, y: 0, z: 0}
      m_ScaleRangeMin: {x: 1, y: 1, z: 1}
      m_ScaleRangeMax: {x: 1, y: 1, z: 1}
      m_UniformScale: {x: 1, y: 1}
      m_UniformBool: 0
      m_XRotationBool: 0
      m_YRotationBool: 0
      m_ZRotationBool: 0
      m_XScaleBool: 0
      m_YScaleBool: 0
      m_ZScaleBool: 0
    name: rock 5 Variant
  - gameObject: {fileID: 5935293481726343228, guid: 49580d94919914c4e8ba336ba8f8f449,
      type: 3}
    settings:
      m_Strength: 50
      m_RotationRangeMin: {x: 0, y: 0, z: 0}
      m_RotationRangeMax: {x: 0, y: 0, z: 0}
      m_ScaleRangeMin: {x: 1, y: 1, z: 1}
      m_ScaleRangeMax: {x: 1, y: 1, z: 1}
      m_UniformScale: {x: 1, y: 1}
      m_UniformBool: 0
      m_XRotationBool: 0
      m_YRotationBool: 0
      m_ZRotationBool: 0
      m_XScaleBool: 0
      m_YScaleBool: 0
      m_ZScaleBool: 0
    name: rock 2 Variant
  - gameObject: {fileID: 1381080028240093159, guid: 5f36d9e34e932e24fa5589b321a9464c,
      type: 3}
    settings:
      m_Strength: 50
      m_RotationRangeMin: {x: 0, y: 0, z: 0}
      m_RotationRangeMax: {x: 0, y: 0, z: 0}
      m_ScaleRangeMin: {x: 1, y: 1, z: 1}
      m_ScaleRangeMax: {x: 1, y: 1, z: 1}
      m_UniformScale: {x: 1, y: 1}
      m_UniformBool: 0
      m_XRotationBool: 0
      m_YRotationBool: 0
      m_ZRotationBool: 0
      m_XScaleBool: 0
      m_YScaleBool: 0
      m_ZScaleBool: 0
    name: rock 3 Variant
  - gameObject: {fileID: 6147589299106892853, guid: 2150595b51b613b43938665fb32debe8,
      type: 3}
    settings:
      m_Strength: 50
      m_RotationRangeMin: {x: 0, y: 0, z: 0}
      m_RotationRangeMax: {x: 0, y: 0, z: 0}
      m_ScaleRangeMin: {x: 1, y: 1, z: 1}
      m_ScaleRangeMax: {x: 1, y: 1, z: 1}
      m_UniformScale: {x: 1, y: 1}
      m_UniformBool: 0
      m_XRotationBool: 0
      m_YRotationBool: 0
      m_ZRotationBool: 0
      m_XScaleBool: 0
      m_YScaleBool: 0
      m_ZScaleBool: 0
    name: bush 2 Variant
  - gameObject: {fileID: 5875632911528191309, guid: 95287f03e6d235a439d4368170f27398,
      type: 3}
    settings:
      m_Strength: 50
      m_RotationRangeMin: {x: 0, y: 0, z: 0}
      m_RotationRangeMax: {x: 0, y: 0, z: 0}
      m_ScaleRangeMin: {x: 1, y: 1, z: 1}
      m_ScaleRangeMax: {x: 1, y: 1, z: 1}
      m_UniformScale: {x: 1, y: 1}
      m_UniformBool: 0
      m_XRotationBool: 0
      m_YRotationBool: 0
      m_ZRotationBool: 0
      m_XScaleBool: 0
      m_YScaleBool: 0
      m_ZScaleBool: 0
    name: berry bush 2 Variant
  - gameObject: {fileID: 7306804305539907048, guid: 0c7636e4bd0423e4494674cb7340634a,
      type: 3}
    settings:
      m_Strength: 50
      m_RotationRangeMin: {x: 0, y: 0, z: 0}
      m_RotationRangeMax: {x: 0, y: 0, z: 0}
      m_ScaleRangeMin: {x: 1, y: 1, z: 1}
      m_ScaleRangeMax: {x: 1, y: 1, z: 1}
      m_UniformScale: {x: 1, y: 1}
      m_UniformBool: 0
      m_XRotationBool: 0
      m_YRotationBool: 0
      m_ZRotationBool: 0
      m_XScaleBool: 0
      m_YScaleBool: 0
      m_ZScaleBool: 0
    name: berry bush 1 Variant
